\relax 
\citation{BxPerspective}
\citation{CoalgebraicPaper}
\@writefile{toc}{\contentsline {section}{\numberline {1}Introduction}{2}}
\@writefile{toc}{\contentsline {paragraph}{}{2}}
\@writefile{toc}{\contentsline {section}{\numberline {2}Background}{2}}
\citation{CoalgebraicPaper}
\citation{EntangledStateMonad}
\citation{symLenses}
\@writefile{lof}{\contentsline {figure}{\numberline {1}{\ignorespaces Draft of bidirectional transformation for two models A and B.}}{3}}
\newlabel{bx}{{1}{3}}
\citation{DesignPatterns}
\@writefile{toc}{\contentsline {section}{\numberline {3}Object Oriented Implementation and Design}{4}}
\@writefile{toc}{\contentsline {paragraph}{}{4}}
\@writefile{toc}{\contentsline {subsection}{\numberline {3.1}General Model}{4}}
\@writefile{toc}{\contentsline {paragraph}{}{4}}
\@writefile{lof}{\contentsline {figure}{\numberline {2}{\ignorespaces Draft of dependencies in a Java MVC typical application.}}{5}}
\newlabel{MVCtypical}{{2}{5}}
\@writefile{lof}{\contentsline {figure}{\numberline {3}{\ignorespaces Draft of dependencies in the Java MVC implementation of a bx relation.}}{6}}
\newlabel{MVCbx}{{3}{6}}
\@writefile{toc}{\contentsline {subparagraph}{Model class:}{6}}
\@writefile{toc}{\contentsline {subparagraph}{}{6}}
\@writefile{toc}{\contentsline {subparagraph}{Transform class:}{7}}
\@writefile{toc}{\contentsline {subparagraph}{}{7}}
\@writefile{toc}{\contentsline {subsection}{\numberline {3.2}Design choice rationale}{7}}
\citation{posBrowsing}
\@writefile{toc}{\contentsline {section}{\numberline {4}Positional Browsing Example}{8}}
\@writefile{toc}{\contentsline {subsection}{\numberline {4.1}Positional Browsing as Bidirectional Transformation}{8}}
\@writefile{toc}{\contentsline {paragraph}{}{8}}
\@writefile{toc}{\contentsline {subsection}{\numberline {4.2}Design Architecture and Rationale}{9}}
\@writefile{toc}{\contentsline {paragraph}{}{9}}
\@writefile{lof}{\contentsline {figure}{\numberline {4}{\ignorespaces Draft of a web window and a pointer as designed in the bx implementation}}{9}}
\newlabel{window}{{4}{9}}
\@writefile{toc}{\contentsline {subparagraph}{WebWindow}{10}}
\@writefile{toc}{\contentsline {subparagraph}{}{10}}
\@writefile{toc}{\contentsline {subparagraph}{WebPointer}{10}}
\@writefile{toc}{\contentsline {subparagraph}{}{10}}
\@writefile{toc}{\contentsline {subparagraph}{}{10}}
\@writefile{lof}{\contentsline {figure}{\numberline {5}{\ignorespaces UML class diagram for Positional Browsing example}}{11}}
\newlabel{class_diagram}{{5}{11}}
\@writefile{lof}{\contentsline {figure}{\numberline {6}{\ignorespaces A Use Case for a typical scenario in the Positional Browsing OO bx implementation. The web pointer position is set and consistencies are restored through the system.}}{12}}
\newlabel{use_case}{{6}{12}}
\citation{composers}
\@writefile{toc}{\contentsline {subsection}{\numberline {4.3}Relationship to example repository and limitations}{13}}
\@writefile{toc}{\contentsline {paragraph}{}{13}}
\@writefile{toc}{\contentsline {section}{\numberline {5}Extension to Composers example}{13}}
\@writefile{toc}{\contentsline {subsection}{\numberline {5.1}Composers as Bidirectional Transformation}{13}}
\@writefile{toc}{\contentsline {paragraph}{}{13}}
\@writefile{toc}{\contentsline {subsection}{\numberline {5.2}Design architecture and rationale}{14}}
\@writefile{toc}{\contentsline {paragraph}{}{14}}
\@writefile{toc}{\contentsline {subparagraph}{ComposerSet}{14}}
\@writefile{toc}{\contentsline {subparagraph}{}{14}}
\@writefile{toc}{\contentsline {subparagraph}{ComposerList}{14}}
\@writefile{toc}{\contentsline {subparagraph}{}{14}}
\@writefile{toc}{\contentsline {subparagraph}{}{14}}
\@writefile{lof}{\contentsline {figure}{\numberline {7}{\ignorespaces Draft of Composer as a bidirectional transformation. The elements in ComposerList are stored in an array and preserve an ordering as opposed to the corresponding elements in ComposerSet. }}{15}}
\newlabel{composer}{{7}{15}}
\citation{CoalgebraicPaper}
\@writefile{toc}{\contentsline {section}{\numberline {6}Discussion}{16}}
\@writefile{toc}{\contentsline {subsection}{\numberline {6.1}Composition}{16}}
\@writefile{toc}{\contentsline {paragraph}{}{16}}
\@writefile{toc}{\contentsline {subsection}{\numberline {6.2}Extensions to general examples}{16}}
\@writefile{toc}{\contentsline {paragraph}{}{16}}
\@writefile{lof}{\contentsline {figure}{\numberline {8}{\ignorespaces Diagram of the compositional view of three related models in the Object Oriented bx framework. Model A and C are indirectly related given B belongs to both \emph  {transform1} and \emph  {transform2} (i.e. it is listed as an Observer in both Observable objects)}}{17}}
\newlabel{composition}{{8}{17}}
\@writefile{toc}{\contentsline {subsection}{\numberline {6.3}Extra}{17}}
\@writefile{toc}{\contentsline {paragraph}{}{17}}
\citation{composers}
\citation{BxPerspective}
\citation{CoalgebraicPaper}
\citation{DesignPatterns}
\citation{EntangledStateMonad}
\citation{NotionsOfBx}
\citation{posBrowsing}
\citation{symLenses}
\citation{leastChange}
\bibstyle{unsrt}
\bibdata{references}
\bibcite{BxPerspective}{1}
\bibcite{CoalgebraicPaper}{2}
\bibcite{EntangledStateMonad}{3}
\bibcite{symLenses}{4}
\bibcite{DesignPatterns}{5}
\bibcite{posBrowsing}{6}
\bibcite{composers}{7}
\bibcite{NotionsOfBx}{8}
\@writefile{toc}{\contentsline {section}{\numberline {7}Conclusion}{19}}
\@writefile{toc}{\contentsline {paragraph}{}{19}}
\bibcite{leastChange}{9}
